<svg id="chevron-right" viewBox="0 0 100 100">
    <path
        d="M29.6 97.6l44.2-44.4c.9-.9 1.3-2.1 1.3-3.3 0-1.2-.5-2.4-1.3-3.3L29.6 2.4c-1.1-1.1-2.8-1.1-3.9 0-.5.5-.8 1.2-.8 1.9s.3 1.4.8 1.9l43.6 43.6-43.6 43.9c-1.1 1.1-1.1 2.8 0 3.9s2.8 1.1 3.9 0z" fill="currentColor"/>
</svg>
